{
  "data": [
    {
      "id": "p1",
      "name": "Red Shirt",
      "image": "https://cdn.pixabay.com/photo/2016/10/02/22/17/red-t-shirt-1710578_1280.jpg",
      "price": 29.99,
      "title": "A red t-shirt, perfect for days with non-red weather."
    },
    {
      "id": "p2",
      "name": "Blue Carpet",
      "image": "https://images.pexels.com/photos/6292/blue-pattern-texture-macro.jpg?auto=compress&cs=tinysrgb&dpr=2&h=750&w=1260",
      "price": 99.99,
      "title": "Fits your red shirt perfectly. To stand on. Not to wear it."
    },
    {
      "id": "p3",
      "name": "Coffee Mug",
      "image": "https://images.pexels.com/photos/160834/coffee-cup-and-saucer-black-coffee-loose-coffee-beans-160834.jpeg?cs=srgb&dl=bean-beans-black-coffee-160834.jpg&fm=jpg",
      "price": 8.99,
      "title": "Can also be used for tea!"
    },
    {
      "id": "p4",
      "name": "The Book - Limited Edition",
      "image": "https://images.pexels.com/photos/46274/pexels-photo-46274.jpeg?cs=srgb&dl=blur-blurred-book-pages-46274.jpg&fm=jpg",
      "price": 15.99,
      "title": "What the content is? Why would that matter? It's a limited edition!"
    },
    {
      "id": "p5",
      "name": "PowerBook",
      "image": "https://get.pxhere.com/photo/laptop-computer-macbook-mac-screen-water-board-keyboard-technology-air-mouse-photo-airport-aircraft-tablet-aviation-office-black-monitor-keys-graphic-hardware-image-pc-exhibition-multimedia-calculator-vector-water-cooling-floppy-disk-phased-out-desktop-computer-netbook-pepriceonal-computer-computer-monitor-electronic-device-computer-hardware-display-device-448748.jpg",
      "price": 229.99,
      "title": "Awesome hardware, crappy keyboard and a hefty price. Buy now before a new one is released!"
    },
    {
      "id": "p6",
      "name": "Pen & Paper",
      "image": "https://cdn.pixabay.com/photo/2015/10/03/02/14/pen-969298_1280.jpg",
      "price": 5,
      "title": "Can be used for role-playing (not the kind of role-playing you're thinking about...)."
    },
    {
      "id": "p7",
      "name": "Coffee Mug",
      "image": "https://images.pexels.com/photos/160834/coffee-cup-and-saucer-black-coffee-loose-coffee-beans-160834.jpeg?cs=srgb&dl=bean-beans-black-coffee-160834.jpg&fm=jpg",
      "price": 8.99,
      "title": "Can also be used for tea!"
    },
    {
      "id": "p8",
      "name": "The Book - Limited Edition",
      "image": "https://images.pexels.com/photos/46274/pexels-photo-46274.jpeg?cs=srgb&dl=blur-blurred-book-pages-46274.jpg&fm=jpg",
      "price": 15.99,
      "title": "What the content is? Why would that matter? It's a limited edition!"
    },
    {
      "id": "p9",
      "name": "PowerBook",
      "image": "https://get.pxhere.com/photo/laptop-computer-macbook-mac-screen-water-board-keyboard-technology-air-mouse-photo-airport-aircraft-tablet-aviation-office-black-monitor-keys-graphic-hardware-image-pc-exhibition-multimedia-calculator-vector-water-cooling-floppy-disk-phased-out-desktop-computer-netbook-pepriceonal-computer-computer-monitor-electronic-device-computer-hardware-display-device-448748.jpg",
      "price": 229.99,
      "title": "Awesome hardware, crappy keyboard and a hefty price. Buy now before a new one is released!"
    },
    {
      "id": "p10",
      "name": "Pen & Paper",
      "image": "https://cdn.pixabay.com/photo/2015/10/03/02/14/pen-969298_1280.jpg",
      "price": 5,
      "title": "Can be used for role-playing (not the kind of role-playing you're thinking about...)."
    }
  ]
}
